Trial Code
…
lda_3 <- lda_3 %>% 
  tidy(matrix = "beta")
lda_3 %>% 
  arrange(desc(beta))

## # A tibble: 9,552 × 3
##    topic term      beta
##    <int> <chr>    <dbl>
##  1     3 biden   0.0980
##  2     2 trump   0.0446
##  3     1 maga    0.0305
##  4     3 joe     0.0224
##  5     1 peopl   0.0185
##  6     2 gop     0.0177
##  7     1 biden   0.0165
##  8     2 vote    0.0165
##  9     3 like    0.0153
## 10     1 conserv 0.0147
## # ℹ 9,542 more rows
…
lda_9 <- lda_9 %>% 
  tidy(matrix = "beta")
lda_9 %>% 
  arrange(desc(beta))

## # A tibble: 28,656 × 3
##    topic term     beta
##    <int> <chr>   <dbl>
##  1     9 biden  0.0793
##  2     1 maga   0.0582
##  3     7 biden  0.0548
##  4     2 dollar 0.0537
##  5     2 biden  0.0482
##  6     4 biden  0.0472
##  7     1 biden  0.0358
##  8     1 trump  0.0356
##  9     6 biden  0.0341
## 10     5 face   0.0306
## # ℹ 28,646 more rows
…
